[gd_resource type="StyleBoxTexture" load_steps=2 format=2]

[ext_resource path="res://Assets/Kenney_UI_RPG/barBlue_horizontalBlue_single.png" type="Texture" id=1]

[resource]
texture = ExtResource( 1 )
region_rect = Rect2( 0, 0, 36, 18 )
margin_left = 6.81115
margin_right = 6.81115
