[gd_scene load_steps=4 format=2]

[ext_resource path="res://Ammunition/LaserBeam/LaserBeam.gd" type="Script" id=1]
[ext_resource path="res://Ammunition/LaserBeam/LaserBeam.png" type="Texture" id=2]

[sub_resource type="RectangleShape2D" id=1]
extents = Vector2( 8.03498, 15.9339 )

[node name="LaserBeam" type="Area2D"]
script = ExtResource( 1 )

[node name="Sprite" type="NinePatchRect" parent="."]
margin_left = -9.54
margin_right = 10.46
margin_bottom = 30.0
rect_min_size = Vector2( 20, 30 )
rect_scale = Vector2( 1, -1 )
texture = ExtResource( 2 )
region_rect = Rect2( 0.0759983, 0.0478992, 17.0921, 27.1442 )
patch_margin_left = 7
patch_margin_top = 7
patch_margin_right = 7
patch_margin_bottom = 5

[node name="CollisionShape2D" type="CollisionShape2D" parent="."]
position = Vector2( 0.00141525, -16.0839 )
shape = SubResource( 1 )
